%YAML 1.1
%TAG !u! tag:unity3d.com,2011:
--- !u!1045 &1
EditorBuildSettings:
  m_ObjectHideFlags: 0
  serializedVersion: 2
  m_Scenes:
  - enabled: 1
    path: Assets/Template/Scenes/SampleScene.unity
    guid: d1c3109bdb54ad54c8a2b2838528e640
  m_configObjects:
    com.unity.input.settings: {fileID: 11400000, guid: d9bec42b61c742041922051e326bf9d1, type: 2}
